// Jest Snapshot v1, https://goo.gl/fbAQLP

exports[`Blob Header Default Actions rendering matches the snapshot 1`] = `
<div
  class="js-file-title file-title-flex-parent"
>
  <div
    class="gl-display-flex"
  >
    <table-of-contents-stub
      class="gl-pr-2"
    />
     
    <blob-filepath-stub
      blob="[object Object]"
    />
  </div>
   
  <div
    class="gl-display-none gl-sm-display-flex file-actions"
  >
    <viewer-switcher-stub
      value="simple"
    />
      
    <default-actions-stub
      activeviewer="simple"
      rawpath="/flightjs/flight/snippets/51/raw"
    />
  </div>
</div>
`;
